::1:: Write the Expand:-ed form of 56
{
=50 + 6
~ 56
~ 65
~ 60 + 5
}


 
::1:: Expand:- 98
{
~ 89
~ 98
~ 80+9
=90 + 8
}


 
::1:: Select the standard form of 90 + 0
{
~ 9
=90
~ 0 + 90
~ 90 + 0
}


 
::1:: Simplify 20 + 3
{
~ 30 + 2
~ 203
=23
~ 32
}


 
::1:: Write the Expand:-ed form of 32
{
=30 + 2
~ 20 + 3
~ 3 + 2
~ 32
}


 
::1:: Expand:- 49
{
~ 49
~ 4 + 9
~ 90 + 4
=40 + 9
}


 
::1:: Select the standard form of 80 + 5
{
=85
~ 58
~ 805
~ 50 + 8
}


 
::1:: Simplify 30 + 1
{
~ 301
=31
~ 10 + 3
~ 13
}


 
::1:: Write the Expand:-ed form of 64
{
~ 64
~ 6 + 4
~ 40 + 6
=60 + 4
}


 
::1:: Expand:- 82
{
=80 + 2
~ 20 + 8
~ 8 + 2
~ 82
}

::1:: Select the standard form of 50 + 5
{
~ 5 + 5
~ 50 + 5
=55
~ 5 + 50
}


 
::1:: Simplify 30 + 9
{
=39
~ 63
~ 90 + 3
~ 9 + 3
}


 
::1:: Write the Expand:-ed form of 59
{
~ 90 + 5
=50 + 9
~ 5 + 9
~ 59
}


 
::1:: Expand:- 66
{
=60 + 6
~ 6 + 6
~ 66
~ 606
}


 
::1:: Select the standard form of 60 + 8
{
~ 86
=68
~ 80 + 6
~ 608
}


 
::1:: Simplify 10 + 2
{
~ 102
~ 21
=12
~ 201
}


 
::1:: Write the Expand:-ed form of 82
{
~ 28
~ 82
~ 20 +8
=80 + 2
}


 
::1:: Expand:- 69
{
=60 + 9
~ 90 + 6
~ 96
~ 609
}


 
::1:: Select the standard form of 40 + 8
{
~ 84
=48
~ 408
~ 804
}


 
::1:: Simplify 90 + 1
{
~ 109
~ 19
=91
~ 901
}

