::1:: Select the word that can be joined with the given noun to form a compound noun:
College
{
=Library                        
~Vacation
~Recess            
~Artist
}

::1:: Select the word that can be joined with the given noun to form a compound noun:
Master
{
=Key                 
~Lock
~Step                            
~Door
}

::1:: Select the word that can be joined with the given noun to form a compound noun:
Passenger
{
~Cart                
=Train
~Cycle             
~Coach
}

Select the word that can be joined with the given noun to form a compound noun:
Race
{
~Path                
~Road
~Passage                       
=Track
}

::1:: Select the word that can be joined with the given noun to form a compound noun:
Tennis
{
=Court              
~Ground
~Field                
~Pitch
}

::1:: Fill in the blanks using the given options to form a compound noun:
Press the _____ alarm. I see some spark in the circuit.
{
~moning          
~burning
=fire                              ~
~dark
}

::1:: Fill in the blanks using the given options to form a compound noun:
Parle is a _____ company.
{
~furniture           
=confectionery
~medicine         
~garment
}

::1:: Fill in the blanks using the given options to form a compound noun:
The _____ chimneys are the major source of air pollution.
{
=factory           
~company
~mill                             
~shop
}

::1:: Fill in the blanks using the given options to form a compound noun:
Everything is sparkling because the _____ team is coming tomorrow.
{
~observation                  
~research
=inspection        
~supervision
}

::1:: Fill in the blanks using the given options to form a compound noun:
I find the _____ bank an ideal location for harbouring imaginative ideas.
{
~water               
~stream
~brook              
=river
}

::1:: Fill in the blanks with a suitable collective noun, choosing from the alternatives given below:
Yesterday, I lost my _____ of keys.
{
~bouquet           
=bunch
~bundle             
~packet
}

She brought a _____ of flowers on my birthday.
{
=bouquet           
~crowd
~bundle             
~packet
}

::1:: Fill in the blanks with a suitable collective noun, choosing from the alternatives given below:
Our _____ won the match.
{
~cattle               
~crowd
=team                           
~herd
}

::1:: Fill in the blanks with a suitable collective noun, choosing from the alternatives given below:
A _____ of cattle was grazing.
{
~team                           
~crowd
=herd                            
~packet
}

::1:: Fill in the blanks with a suitable collective noun, choosing from the alternatives given below:
You can put a _____ of tools in that box.
{
~box                             
=set
~group                          
~number
}

::1:: Choose the abstract noun from the alternatives given below:
Brother
{
~Brotherly         
=Brotherhood
~Brothers           
~None of these
}

::1:: Choose the abstract noun from the alternatives given below:
Know
{
~Known             
=Knowledge
~Knowing         
~None of these
}

::1:: Choose the abstract noun from the alternatives given below:
Strong
{
~Stronger          
=Strength
~Strongest         
~None of these
}

::1:: Choose the correct noun from the alternatives given below:
Television is a wonderful source of
{
~inform            
~informative
~informer          
=information
}

::1:: Choose the correct noun from the alternatives given below:
Your passport shows your _____.
{
~native             
~national
=nationality                   
~nationalist
}

::1:: Choose the correct noun from the alternatives given below:
You can show a driving license to prove your _____.                       
{
~identify                        
~identifiable           
~identified                      
=identity   
}

::1:: Choose the correct noun from the alternatives given below:
We need a _____ to help us understand this letter It is written in Spanish.
{
~translate                      
~translating
~translated                     
=translator   
}

::1:: Choose the correct noun from the alternatives given below:
The Indian warriors showed exceptional
{
~brave             
~bravely
~braver            
=bravery
}

::1:: Choose the correct noun from the alternatives given below:
How did the universe come into _____?
{
~exist               
=existence
~existing                        
~existed
}

::1:: Choose the correct noun from the alternatives given below:
The United Nations is an international
{
~organise          
=organisation
~organiser         
~organized
}

Choose the correct noun / noun phrase from the alternatives given below:
Suresh, _____ of the football team, is my best friend.
{
=the captain                   
~captaining
~captained                     
~captains
}

::1:: Direction: Select the correct pronouns and fill in the blanks.
Stella and Maria haven't met _________ for a long time.
{
=Each other                   
~each
~Other                          
~others
None of these
}

::1:: Direction: Select the correct pronouns and fill in the blanks.
My friends enjoyed _________ very much at the concert.
{
~Himself                        
=themselves
~Herself                         
~yourself
~None of these
}

::1:: Direction: Select the correct pronouns and fill in the blanks.
Sam repaired his car ___________.
{
~Myself                         
=himself
~Yourself                       
~itself
~None of these
}

::1:: Direction: Select the correct pronouns and fill in the blanks.
We helped _________ with our report.
{
~Himself                        
~yourself
=Each other
~yourself
~None of these
}

::1:: Direction: Select the correct pronouns and fill in the blanks.
People often give _________ presents at Christmas.
{
=Each other                   
~himself
~Itself                            
~myself
~None of these
}

::1:: Direction: Select the correct pronouns and fill in the blanks.
I bought _______ a new camera.
{
~Yourself    _                 
~himself
~Each other                   
=myself
~None of these
}

::1:: Direction: Select the correct pronouns and fill in the blanks.
Jacques, did you do the English homework __________?
{
~Himself                        
~yourself
~Myself                         
=yourself
~None of these
}

::1:: Direction: Select the correct pronouns and fill in the blanks.
They looked at _________ and smiled.
{
~Myself                         
=each other
~Yourself                       
~itself
~None of these
}

::1:: Direction: Select the correct pronouns and fill in the blanks.
Michael and Andrew often write e-mails to ________ because they are good friends.
{
~Herself                         
~himself
=Each other                   
~yourself
~None of these
}

::1:: Direction: Select the correct pronouns and fill in the blanks.
Annie only thinks of __________.
{
=Herself                         
~each other
~Yourself                       
~itself
~None of these
}

::1:: Direction: Answer the following questions by selecting the correct options.          
Identify the personal pronoun among the following.
{
=It              
~This
~Myself                         
~Both [a] and [c]
~None of these
}

::1:: Direction: Answer the following questions by selecting the correct options.          
Which among the following is not a possessive pronoun?
{
~His                              
=Our
~Mine                           
~Yours
~None of these
}

::1:: Direction: Answer the following questions by selecting the correct options.          
Which among the following is a reflexive pronoun?
{
=Herself     
~Ours
~Their                           
~Both [a] and [c]
~None of these
}

::1:: Direction: Answer the following questions by selecting the correct options.          
Which among the following is not a demonstrative pronoun?
{
~This                            
~These
~That                            
=Them
~None of these
}

::1:: Direction: Answer the following questions by selecting the correct options.          
Which among the following is not an interrogative pronoun?
{
~What                           
=Yours
~Who                            
~Both [b] and [c]
~None of these
}

::1:: Direction: Answer the following questions by selecting the correct options.          
Identify the emphasising pronoun among the following.
{
~Herself                         
~Whose
~Yours                          
=Both [b] and [c]
~None of these
}

::1:: Direction: Answer the following questions by selecting the correct options.          
Which among the following is not an interrogative pronoun?
{
~What                           
~Which
~Whom                         
~Whose
=None of these
}

::1:: Direction: Answer the following questions by selecting the correct options.          
Which among the following is a reflexive pronoun?
{
=Themselves                  
~Yours
~Hers                            
~Both [b] and [c]
~None of these
}

::1:: Direction: Arrange P, Q, R and S to form meaningful sentences.
P: he                            
Q: lives       
R: in                           
S: comfort
{
=PQRS                          
~QPRS        
~RQPS                          
~PRSQ
~None of these
}

::1:: Direction: Arrange P, Q, R and S to form meaningful sentences.
P: a                                         
Q: he had     
R: narrow                       
S: escape
{
~PQRS                          
=QPRS       
~RQPS                          
~PRSQ
~None of these
}

::1:: Direction: Arrange P, Q, R and S to form meaningful sentences.
P: like                           
Q: death       
R: he faced                   
S: a hero
{
~PQRS                          
~QPRS    
=RQPS          
~PRSQ
~None of these
}

::1:: Direction: Arrange P, Q, R and S to form meaningful sentences.
P: carefully                               
Q: document  
R: the                             
S: we examined
{
~PQRS                          
~QPRS    
~ROPS                          
=SRDP
~None of these
}

::1:: Direction: Arrange P, Q, R and S to form meaningful sentences.
P: I                                          
Q: succeed     
R: hope                          
S:  to
{
~POPS                          
~UPRS     
~RQPS                          
=PRSQ
~None of these
}

::1:: Direction: Arrange P, Q, R and S to form meaningful sentences.
P: fought                                  
Q: soldiers    
R: our                                       
S: bravely
{
~PQRS                          
~OPRS     
=RO{PS                          
~PESO
~None of these.
}

::1:: Direction: Arrange P, Q, R and S to form meaningful sentences.
P: injurious                  
Q: drinking is 
R: to                           
S: health
{
~PQRS                          
=QPRS     
~RQPS                          
~PRSQ
~None of these
}

::1:: Fill in the blanks using the correct options.
Kanak ____ sick the day before because she got caught in the rain.
{
~be                  
~did
=was                 
~had
}

::1:: Fill in the blanks using the correct options.
They ___ best friends until they quarreled a month ago.
{
~be                
~did
~had               
=were 
}

::1:: Fill in the blanks using the correct options.
I ____ so hungry I can eat three bowls of rice.
{
=am                 
~is
~does             
~has 
}

::1:: Fill in the blanks using the correct options.
____ you like to read books in your free time?
{
=Do                 
~Be
~Have             
~Are
}

::1:: Fill in the blanks using the correct options.
Richa ____ the most wonderful birthday party last year.
{
~was               
~be
=had                 
~did
}

::1:: Fill in the blanks using the correct options.
Milan ____ not want to go swimming today because the sky is dark.
{
~is                 
~has
~be                
=does
}

::1:: Fill in the blanks using the correct options.
Farhan ____an enjoyable time at the theme park.
{
=has                 
~is
~does              
~be  
}

::1:: Fill in the blanks using the correct options.
You ____ very tall for a child your age.
{
~be                
~has
=are                 
~does
}

::1:: Fill in the blanks using the correct options.
You ____ very tall for a child your age.
{
~be                
~has
=are                 
~does
}

::1:: Fill in the blanks using the correct options.
______ you go to the movies yesterday?
{
~Was              
~Had
=Did                 
~Doing
}

::1:: Fill in the blanks using the correct options.
My grandparents ____ nine children altogether.
{
~be                
~do
=have                
~are
}

::1:: Mark the correct category of the following adjectives:
Better
{
~Appearance                  
=Condition
~Size                             
~Shape
}

::1:: Mark the correct category of the following adjectives:
Colossal
{
~Appearance                  
~Colour
=Size                             
~Shape
}

::1:: Mark the correct category of the following adjectives:
Expensive
{
~Appearance                  
~Colour
~Size                             
=Condition
}

::1:: Mark the correct category of the following adjectives:
Gray
{
~Appearance                  
=Colour
~Size                             
~Shape
}

::1:: Mark the correct category of the following adjectives:
Hollow
{
~Appearance                  
~Condition
~Size                             
=Shape
}

::1:: Mark the correct category of the following adjectives:
Magnificent
{
~Appearance                  
~Colour
~Size                             
~Shape
}

::1:: Mark the correct category of the following adjectives:
Marvelous
{
=Appearance                  
~Colour
~Size                             
~Shape
}

::1:: Mark the correct category of the following adjectives:
Sparkling
{
=Appearance                  
~Colour
~Size                             
~Shape
}

::1:: Mark the correct adjective of the given options:
{
=Cowardly                     
~Belly
~Apply             
~Beautifully
}

::1:: Mark the correct adjective of the given options:
{
~Loyally                        
~Really
~Hungrily                      
=Scholarly
}

::1:: Mark the correct adjective of the given options:
{
~Gr{acefully                    
~Carefully
=Friendly          
~Supply
}

Mark the correct adjective of the given options:
{
=Chilly             
~Grimly
~Remorsefully                
~Telly
}

::1:: Mark the correct adjective of the given options:
{
~Briskly                         
=Costly
~Family            
~Ruthlessly
}


::1:: Mark the correct adjective of the given options:
{
~Formerly                      
~Boldly
=Hilly               
~Dimly
}

::1:: Mark the correct adjective of the given options:
{
~Rally               
=Sly
~Wrongly          
~Openly
}

::1:: Mark the correct adjective of the given options:
{
~Annually                      
~Apply
=Jolly                
~Badly
}

::1:: Choose the correct adjective from the options given below:
This book is very _____.
{
=informative      
~informing
~informed          
~informs
}

::1:: Choose the correct adjective from the options given below:
If you want to be good at football, you need a very _____ spirit.
{
~compete         
~competition
=competitive                  
~competitor
}

::1:: Fill in the blanks with appropriate prepositions:
Gandhi Jayanti is celebrated ____ 2nd October.
{
~on                   
=at
~in                                
~by
}

::1:: Fill in the blanks with appropriate prepositions:
India got independence ___ midnight.
{
~on                               
~about
~in                                
=at
}

::1:: Fill in the blanks with appropriate prepositions:
There is a ban ____ mobile phones in Samir's school.
{
~with               
=on
~for                              
~in
}

::1:: Fill in the blanks with appropriate prepositions:
The storm caused a lot of damage ____ the forest.
{
~for                              
=to
~about              
~into
}

::1:: Fill in the blanks with appropriate prepositions:
Maggie always travels ____ train.
{
~in                    
=by
~off                 
~with
}

::1:: Fill in the blanks with appropriate prepositions:
The old man divided the money ____ his two sons.
{
~among             
~with
=between           
~in
}

::1:: Fill in the blanks with appropriate prepositions:
____ food, we gave the poor some money.
{
~Beside             
~Among
~By                              
=Besides
}

::1:: Fill in the blanks with appropriate prepositions:
Sweets were distributed ____ the children.
{
~in                                
=among
~between           
~on
}

::1:: Fill in the blanks with appropriate prepositions:
Don't talk ___ meals.
{
=during                          
~on
~in                                
~among
}

::1:: Fill in the blanks with appropriate prepositions:
The tiger walked ____ the trap.
{
~at                               
~in
=into                             
~between
}

::1:: Fill in the blanks with appropriate prepositions:
It is ten o'clock ____ my watch.
{
~in                                
=by
~at                               
~to
}

::1:: Fill in the blanks with appropriate prepositions:
Alice killed two birds ____ one stone.
{
~by                               
~in
=with                
~from
}

::1:: Fill in the blanks with appropriate prepositions:
The flight from Italy to London was ____ Frankfurt.
{
~across             
=via
~on                   
~in
}

::1:: Fill in the blanks with appropriate prepositions:
She came home ____ early.
{
~above              
~into
~on                               
=none of these
}

::1:: Fill in the blanks with appropriate prepositions:
What are the causes ____ pollution?
{
~with                
=of
~for                              
~in
}

Fill in the blanks with appropriate prepositions:
Kavita does not believe______God.
{
~with               
~by
~to                               
=in
}

::1:: Fill in the blanks with appropriate prepositions:
Sona comes ____ a rich family.
{
=from                
~at
~in                                
~of
}
::1:: Fill in the blanks with appropriate prepositions:
Learn this poem ____heart.
{
~at                               
~with
~in                    
=by
}


::1:: Fill in the blanks with appropriate prepositions:
Be kind ____ animals.
{
~at                               
=to
~with                            
~on
}

::1:: Fill in the blanks with appropriate prepositions:
Exercise is good _____ health.
{
~to                               
~with
=for                              
~by
}


::1:: Read the passage and mark the most appropriate preposition from the options given below:
Mrs Gupta lives __21__ a flat near the Apna Bazaar __22__ 55 A, Model Nagar__23__ New Delhi. Her flat is __24__ the third floor. She usually remains __25__ her flat and keeps herself busy __26__ the household chores. Mr Gupta goes __27__ office __28__ the morning and __29__ 9:30 a.m. her, son also leaves __30__ Faridabad where he works __31__ a factory. He works __32__ the General Manager. While coming back __33__ home, he buys fruits and vegetables __34__ the market. Sometimes, he invites his friends __35__tea.
{
~in                                
~on
=at                        
}

::1:: Read the passage and mark the most appropriate preposition from the options given below:
Mrs Gupta lives __21__ a flat near the Apna Bazaar __22__ 55 A, Model Nagar__23__ New Delhi. Her flat is __24__ the third floor. She usually remains __25__ her flat and keeps herself busy __26__ the household chores. Mr Gupta goes __27__ office __28__ the morning and __29__ 9:30 a.m. her, son also leaves __30__ Faridabad where he works __31__ a factory. He works __32__ the General Manager. While coming back __33__ home, he buys fruits and vegetables __34__ the market. Sometimes, he invites his friends __35__tea.
{
~at                               
~on
~upon               
=in
}

::1:: Direction: In each of the following groups, one word in bold letters followed by four words or expressions. One of the four words or expressions the synonym of the word in bold letters. Pick up the synonym.
Dilemma
{
~vigour                          
~force
~delight                         
=predicament
}

::1:: Direction: In each of the following groups, one word in bold letters followed by four words or expressions. One of the four words or expressions the synonym of the word in bold letters. Pick up the synonym.
Knack
{
~rogue                           
~peril
~safety                          
=bent
~None of these
}

::1:: Direction: In each of the following groups, one word in bold letters followed by four words or expressions. One of the four words or expressions the synonym of the word in bold letters. Pick up the synonym.
Foe
{
~fool                             
~fealty
~logic                            
=enemy
~None of these
}


::1:: Direction: In each of the following groups, one word in bold letters followed by four words or expressions. One of the four words or expressions the synonym of the word in bold letters. Pick up the synonym.
Fable
{
~truth                            
~dirt
=myth          
~sanity
~None of these
}

::1:: Direction: In each of the following groups, one word in bold letters followed by four words or expressions. One of the four words or expressions the synonym of the word in bold letters. Pick up the synonym.
Let
{
~silence                         
~speech
=prmit                         
~dexterity
~None of these
}

::1:: Direction: In each of the following groups, one word in bold letters followed by four words or expressions. One of the four words or expressions the synonym of the word in bold letters. Pick up the synonym.
Knave
{
~facility                         
~difficulty
~hardness                      
=rogue
~None of these
}

::1:: Direction: In each of the following groups, one word in bold letters followed by four words or expressions. One of the four words or expressions the synonym of the word in bold letters. Pick up the synonym.
Mode
{
~veracity                       
~dishonesty
=method                        
~debate
~None of these
}

::1:: Direction: In each of the following groups, one word in bold letters followed by four words or expressions. One of the four words or expressions the synonym of the word in bold letters. Pick up the synonym.
Waspish
{
~fishy                            
=i3eevisb
~amiable                       
~heroic
~None of these
}

::1:: Direction: In each of the following groups, one word in bold letters followed by four words or expressions. One of the four words or expressions the synonym of the word in bold letters. Pick up the synonym.
Brilliant
{
~hearty                         
~bold
=splendid     
~sly
~None of these
}

::1:: Direction: In each of the following groups, one word in bold letters followed by four words or expressions. One of the four words or expressions the synonym of the word in bold letters. Pick up the synonym.
Prudent
{
~puny                           
~burly
=cautious                       
~indecent
~None of these
}

::1:: Direction: In each of the following groups, one word in bold letters followed by four words or expressions. One of the four words or expressions the synonym of the word in bold letters. Pick up the synonym.
Meet
{
~truthful                        
~nimble
=suitable      
~unfit
~None of these
}

::1:: Direction: In each of the following groups, one word in bold letters followed by four words or expressions. One of the four words or expressions the synonym of the word in bold letters. Pick up the synonym.
Better
{
~batter                          
~vaunt
~deject                          
=improve
~None of these
}

::1:: Direction: In each of the following groups, one word in bold letters followed by four words or expressions. One of the four words or expressions the synonym of the word in bold letters. Pick up the synonym.
Court
{
~shun                            
~fade
~cavil                            
=tribunal
~None of these
}

::1:: Direction: In each of the following groups, one word in bold letters followed by four words or expressions. One of the four words or expressions the synonym of the word in bold letters. Pick up the synonym.
Face
{
~allay                           
~falter
=confront                       
~foment
~None of these
}

::1:: Direction: In each of the following groups, one word in bold letters followed by four words or expressions. One of the four words or expressions the synonym of the word in bold letters. Pick up the synonym.
Kid
{
~assist                           
~revive
~prolong                        
=young one
~None of these
}

::1:: Direction: In each of the following groups, one word in bold letters followed by four words or expressions. One of the four words or expressions the synonym of the word in bold letters. Pick up the synonym.
Lessen
{
~expand                        
~wilt
=decrease                      
~Elapse
~None of these
}

::1:: Direction: In each of the following groups, one word in bold letters followed by four words or expressions. One of the four words or expressions the synonym of the word in bold letters. Pick up the synonym.
Needled
{
~please                          
~amass
=annoy                         
~gladden
~None of these
}

::1:: Direction: In each of the following groups, one word in bold letters followed by four words or expressions. One of the four words or expressions the synonym of the word in bold letters. Pick up the synonym.
Quest
{
~hide                            
~agitate
~request                        
=Search
~None of these
}

::1:: Direction: In each of the following groups, one word in bold letters followed by four words or expressions. One of the four words or expressions the synonym of the word in bold letters. Pick up the synonym.
Rag
{
~Raid                            
~rub
~falsify                          
=tease
~None of these
}

::1:: Direction: In each of the following groups, one word in bold letters followed by four words or expressions. One of the four words or expressions the synonym of the word in bold letters. Pick up the synonym.
Tail
{
~snub                            
~match
~distend                     
=follow somebody closed
~None of these
}

::1:: Read the passages given below and answer the questions that follow:
The Cricket and the Ants
It was summer and the cricket sat on an ear of wheat happily singing and enjoying the sun.
He felt extremely sorry for the ants, who worked ceaselessly looking for grains of wheat to take back to their store.
Poor things, they really did not know-how to enjoy life.
But soon the winter came and the thoughtless cricket had no food at all to eat.
He would surely have died of hunger if it had not been for the generous ants who had given him some of their grain.
"Think of keeping something for the rainy days."What was the cricket doing during the summer?
{
~He was sitting.
=He was singing and having fun.
~He felt sorry.
~None of the above.
}


::1:: Read the passages given below and answer the questions that follow:
The Cricket and the Ants
It was summer and the cricket sat on an ear of wheat happily singing and enjoying the sun.
He felt extremely sorry for the ants, who worked ceaselessly looking for grains of wheat to take back to their store.
Poor things, they really did not know-how to enjoy life.
But soon the winter came and the thoughtless cricket had no food at all to eat.
He would surely have died of hunger if it had not been for the generous ants who had given him some of their grain.
"Think of keeping something for the rainy days."What was the cricket doing during the summer?
{
=He was sitting.
~He was singing and having fun.
~He felt sorry.
~None of the above.
}

::1:: Read the passages given below and answer the questions that follow:
The Cricket and the Ants
It was summer and the cricket sat on an ear of wheat happily singing and enjoying the sun.
He felt extremely sorry for the ants, who worked ceaselessly looking for grains of wheat to take back to their store.
Poor things, they really did not know-how to enjoy life.
But soon the winter came and the thoughtless cricket had no food at all to eat.
He would surely have died of hunger if it had not been for the generous ants who had given him some of their grain.
"Think of keeping something for the rainy days."What happened with the cricket in the winter?
{
~He died of hunger.
=He had no food to eat.
~He became thoughtless.
~None of the above.
}

::1:: Read the passages given below and answer the questions that follow:
The Cricket and the Ants
It was summer and the cricket sat on an ear of wheat happily singing and enjoying the sun.
He felt extremely sorry for the ants, who worked ceaselessly looking for grains of wheat to take back to their store.
Poor things, they really did not know-how to enjoy life.
But soon the winter came and the thoughtless cricket had no food at all to eat.
He would surely have died of hunger if it had not been for the generous ants who had given him some of their grain.
"Think of keeping something for the rainy days."How did the ants help the cricket?
{
~They gave him shelter.
~They gave him water.
=They gave him grains to eat.
~None of the above.
}

::1:: Read the passages given below and answer the questions that follow:
The Cricket and the Ants
It was summer and the cricket sat on an ear of wheat happily singing and enjoying the sun.
He felt extremely sorry for the ants, who worked ceaselessly looking for grains of wheat to take back to their store.
Poor things, they really did not know-how to enjoy life.
But soon the winter came and the thoughtless cricket had no food at all to eat.
He would surely have died of hunger if it had not been for the generous ants who had given him some of their grain.
"Think of keeping something for the rainy days."What is the moral of the story?
{
~Wait for rainy season.
=Save for rainy days.
~Rainy days can come any day.
~None of the above.
}

::1:: The Frog and the Ox
A frog decided to become as big as an ox.
So it began to breathe in and in and every time it swallowed more air, it did in fact become bigger. But it soon began to tire of its efforts.
'Am I big enough yet?' it asked hopefully to its many watching companions.
Then they had another look at the ox and shook their heads, 'No, a bit more.'
So the ambitious frog kept on puffing itself up and up...........until it burst like a balloon!
"Do not make fool of yourself to make others merry."What did the frog decide to do?
{
~To fight an ox.
~To invite an ox.
=To become as big as an ox.
~None of the above.
}

::1:: Mark the option which makes correct use of adverb:
{
=The baby is crying now.
~The baby is now crying.
~The baby now is crying.
~Now is the baby crying.
}

::1:: Mark the option which makes correct use of adverb:
{
~He spoke well English.
=He spoke English well.
~Well he spoke English.
~He well spoke English.
}

::1:: Mark the option which makes correct use of adverb:
{
~The baby still is sleeping.
~The baby is sleeping still.
=The baby is still sleeping.
~Still the baby is sleeping.
}

::1:: Mark the option which makes correct use of adverb:
{
~He has not come yet.
~He has not yet come.
~He yet has not come.
=Both A and B.
}

::1:: Mark the option which makes correct use of adverb:
{
~You should be punctual always.
~You always should be punctual.
=You should always be punctual.
~You should be always punctual.
}

::1:: Mark the option which makes correct use of adverb:
{
~She is enough intelligent to pass the exam.
~She enough is intelligent to pass the exam.
=She is intelligent enough to pass the exam.
~She is intelligent to pass the exam enough.
}

::1:: Mark the option which makes correct use of adverb:
{
~The ice cream taste goodly.
~The ice cream tastes well.
~Both A and B.
=None of the above.
}

::1:: Mark the option which makes correct use of adverb:
{
=The rose smells sweet.
~The rose smells sweetly.
~Both A and B.
~None of the above.
}

::1:: Choose the correct adverb from the options given below:
 We are standing ____ his house waiting for him
{
=outside            
~down
~about                          
~away
}

::1:: Choose the correct adverb from the options given below:
I ____ play badminton with my sister.
{
~today                          
~soon
=often                           
~now
}

::1:: Choose the correct adverb from the options given below:
They were ____ very friendly.
{
~just                             
~before
=always             
~yet
}

::1:: Choose the correct adverb from the options given below:
She has ____ completed her degree course.
{
=just                             ~
~often
~daily               
~seldom
}

::1:: Choose the correct adverb from the options given below:
Shivani is happy. She smiles ____.
{
~happier            
~happiest
=happily           
~happy
}

::1:: Choose the correct adverb from the options given below:
Jim is a wonderful piano player. He plays the piano ____.
{
=wonderfully                  
~more wonderful
~most wonderful             
~wonderful
}

::1:: Choose the correct adverb from the options given below:
Sudha is a good dancer. She dances really
{
~good                           
~better
~best                             
=well
}

::1:: Choose the correct adverb from the options given below:
We ____ go to sleep by 10 P.M.
{
~regular             
~normal
~usual               
=generally
}
  
::1:: Choose the correct adverb from the options given below:
The mother ____ laid the baby in the bed.
{
=gently             
~honestly
~frankly            
~hardly
}

::1:: Choose the correct adverb from the options given below:
It is good to exercise ____.
{
~highly             
~heavily
=regularly          
~quickly
}

::1:: Complete the following paragraph with suitable adverb from the options given below:
It is __19__ said that if we do not take pains, we gain nothing. __20__ life without work is meaningless. Those who sit __21__ or look for outside help invite __22__ their ruin. The sun/ moon and other heavenly bodies __23__ work. __24__, it is clear that work is a must for our life. __25__ say you cannot take pains.
{
~cleverly                        
~hardly
~heavily                        
=rightly
}

::1:: Complete the following paragraph with suitable adverb from the options given below:
It is __19__ said that if we do not take pains, we gain nothing. __20__ life without work is meaningless. Those who sit __21__ or look for outside help invite __22__ their ruin. The sun/ moon and other heavenly bodies __23__ work. __24__, it is clear that work is a must for our life. __25__ say you cannot take pains.
{
=Surely            
~Hardly
~Almost           
~Only
}

::1:: Complete the following paragraph with suitable adverb from the options given below:
It is __19__ said that if we do not take pains, we gain nothing. __20__ life without work is meaningless. Those who sit __21__ or look for outside help invite __22__ their ruin. The sun/ moon and other heavenly bodies __23__ work. __24__, it is clear that work is a must for our life. __25__ say you cannot take pains.
{
~really              
~hardly
~boldly                          
=idly
}

::1:: Complete the following paragraph with suitable adverb from the options given below:
It is __19__ said that if we do not take pains, we gain nothing. __20__ life without work is meaningless. Those who sit __21__ or look for outside help invite __22__ their ruin. The sun/ moon and other heavenly bodies __23__ work. __24__, it is clear that work is a must for our life. __25__ say you cannot take pains.
{
~wisely             
~continuously
=definitely                      
~gladly
}

::1:: Direction: Choose the most probable conjunction among the given choices to join two sentences A and B in
A. He sells mangoes	B. He sells oranges.
{
=and                             
~because
~neither, nor 
~but
~None of these
}

::1:: Direction: Choose the most probable conjunction among the given choices to join two sentences A and B in
A. I honour him.	B. He is a brave man.
{
~and      
=because
~neither, nor                  
~but
~None of these
}

::1:: Direction: Choose the most probable conjunction among the given choices to join two sentences A and B in
A. Rama reads for pleasure.	B. Hari reads for profit.
{
=and            
~because
~neither, nor                  
~but
~None of these
}

::1:: Direction: Choose the most probable conjunction among the given choices to join two sentences A and B in
A. We decided to set out.	B.  It was late.
{
~and                             
=because
~neither, nor                  
~but
~None of these
}

::1:: Direction: Choose the most probable conjunction among the given choices to join two sentences A and B in
A. He is not a knave.	B. He is not a fool.
{
~and                             
=because
~neither, nor                  
~but
~None of these
}

::1:: Direction: Choose the most probable conjunction among the given choices to join two sentences A and B in
A.  The sheep are grazing.	B. The oxen are grazing.
{
=and                             
~because
~neither, nor                  
~but
~None of these
}

::1:: Direction: Choose the most probable conjunction among the given choices to join two sentences A and B in
A. The boy is here.	B. The girl is here.
{
=and                             
~because
~neither, nor                  
~but
~None of these
}

::1:: Direction: Choose the most probable conjunction among the given choices to join two sentences A and B in
A. I like him.	B. He is dangerous.                 
{
~and                             
=because
~neither, nor                  
~but
~None of these
}

::1:: Direction: Choose the most probable conjunction among the given choices to join two sentences A and B in
A. You are tall.	B. My brother is taller.
{
=and                             
~because
~neither, nor                  
~but
~None of these
}

::1:: Direction: Choose the most probable conjunction among the given choices to join two sentences A and B in
A. Hari did not come.	B. He did not send a letter.
{
~and                             
~because
=neither, nor                  
~But
~None of these
}

::1:: Direction: Fill in the blanks with correct conjunctions.
He ran away ____ he was afraid.
{
~and                                         
=because
~but                              
~also
~None of these
}

::1:: Direction: Fill in the blanks with correct conjunctions.
Sentinels were posted ____ the camp should be taken by surprise.
{
~unless                          
~than
~though                         
=lest
~None of these
}

::1:: Direction: Fill in the blanks with correct conjunctions.
____ you say so, I must believe it.
{
=Since                                       
~That
~While                                      
~before
~None of these
}

::1:: Direction: Fill in the blanks with correct conjunctions.
I wa{ited for my friend ____ he came.
{
~still                              
~unless
=until                            
~though
~None of these
}

::1:: Fill in the blanks with correct conjunctions.
I do not understand ____ it all happened.
{
~also                             
~because
=how            
~while
~None of these
}

::1:: Direction: Fill in the blanks with correct conjunctions.
Pizzas ____ burgers are my favourite snacks.
{
~or                               
=and
~but                              
~for
~None of these
}

::1:: Direction: Fill in the blanks with correct conjunctions.
This is the place   ___ we stayed last time.
{
~when                           
=where
~and                             
~but
~None of these
}

::1:: Direction: Fill in the blanks with correct conjunctions.
You won't pass the test ____ you study
{
~if                                
=unless
~when                           
~where
~None of these
}

::1:: Direction: Fill in the blanks with correct conjunctions.
The merchant employed many carpenters ____ masons.
{
~or                               
=and
~but                              
~i
~None of these
}

::1:: Fill in the blanks with the correct options.
Have you ____ your breakfast?
{
~has                             
~have    
~having            
=had
}

::1:: Fill in the blanks with the correct options.
I haven't ____ the film yet.
{
~see    
~sees    
~saw                
=seen  
}

::1:: Fill in the blanks with the correct options.
The visitors have ____ to see the museum.
{
~go     
~goes   
=gone                 
~went 
}

::1:: Fill in the blanks with the correct options.
He has ____ to take his umbrella.
{
=forgotten         
~forgot
~forgetting         
~forget 
}

::1:: Fill in the blanks with the correct options.
We ____ the parcel.
{
~have send        
~sending
~had send         
=have sent
}

::1:: Fill in the blanks with the correct options.
You have ____ this dress for the first time.
{
~wear              
=worn   
~wore              
~wearing
}

::1:: Fill in the blanks with the correct options.
I have ____ him for the past six years.
{
~know              
~knew  
=known            
~knowing
}

::1:: Fill in the blanks with the correct options.
Where had you ____?
{
~was                
~is      
=were               
~been
}

::1:: Fill in the blanks with the correct options.
My father has ____ to my teacher.
{
~speak             
~spoke  
=spoken           
~speaking
}

::1:: Fill in the blanks with the correct options.
My fr{iends have ____ me a gift today.
{
~give                
~gave    
=given              
~giving
}

::1:: Fill in the blanks with the correct options.
Mom : Hari, have you posted the letter ?
Hari: I ____ already ____ it.
{
~will, post          
~am, posting
=have, posted    
~did, posted
}

::1:: Fill in the blanks with the correct options.
Sagar ____ at parties.
{
~sanged            
~will singing
~sung                
=sings
}

::1:: Fill in the blanks with the correct options.
My ticket is confirmed. I ____ the wedding in Mumbai.
{
=am going to attend     
~will be attended
~attended          
~will have attended
}

::1:: Fill in the blanks with the correct options.
Irfan ____ six wickets in the last match.
{
~have taken      
~will take
=took                 
~takes
}

::1:: Fill in the blanks with the correct options.
Rosie: I will return to Delhi tomorrow.
Mita: ____ you ____ the museum here?
{
~Will, see          
=Have, seen
~Did, saw          
~Do, see
}

::1:: Fill in the blanks with the correct options.
My brother ____ never ____ to a village.
{
~will, went       
~did, goes
~does, go          
=has, been
}

::1:: Fill in the blanks with the correct options.
He ____ the guitar now.
{
~has been playing        
~has played
~plays                
=is playing
}

Fill in the blanks with the correct options.
What are you ____ now?
{
~does               
~done   
~doing             
=did
}

::1:: Fill in the blanks with the correct options.
I _____ the film twice.
{
=have seen        
~see
~am seeing        
~seen
}

::1:: Fill in the blanks with the correct options.
I ____ not yet ____ the essay.
{
~had, write        
~had, wrote
~have, wrote     
=have, written
}

::1:: Directions: Fill in the blanks with correct word. The pupils are _____ and do not know what to do.
{
=confused     
~exhausted     
~lonely                          
~timid
}

::1:: Directions: Fill in the blanks with correct word. Arun is extremely _____. He needs to take a rest.
{
~confused                     
=exhausted    
~lonely                          
~timid
}

::1:: Directions: Fill in the blanks with correct word. Meena feels _____. She has no friends to play with.
{
~confused                     
~exhausted     
=lonely        
~timid
}

::1:: Directions: Fill in the blanks with correct word. He is very _____ and does not dare to speak up.
{
~confused                     
~exhausted     
~lonely                          
=timid
}

::1:: Directions: Fill in the blanks with correct word. I was daydreaming when he shouted at me. That _____ me.
{
=startled     
~satisfied       
~embarrassed               
~excited
}

::1:: Directions: Fill in the blanks with correct word. I am not _____ with the marks I got for science.
{
~startled                        
=satisfied       
~embarrassed               
~excited
}

::1:: Directions: Fill in the blanks with correct word. His shorts were torn. He felt _____.
{
~startled                        
~satisfied      
=embarrassed   
~excited
}

::1:: Directions: Fill in the blanks with correct word. The girls are very _____ after winning the contest.
{
~startled                        
~satisfied      
~embarrassed               
=excited
}

::1:: Directions: Fill in the blanks with correct word. She is _____ of her friend's good results.
{
=jealous       
~satisfied      
~embarrassed               
~excited
}

::1:: Directions: Fill in the blanks with correct word. His classmates' noisy chatter _____ him.
{
~startled                        
~satisfied       
=irritated     
~excited
}

::1:: Directions: Choose the pair of words that best express a relationship similar to that of the original pair.                                                   MOUNTAIN : HIGH
{
~river : ugly       
=valley : low     
~forest; lonely                
~desert: wet
}

::1:: Directions: Choose the pair of words that best express a relationship similar to that of the original pair.                                                   TEACHER : EDUCATE
{
=senator : represent      
~lawyer : instruct
~coach : condemn                    
~priest: annoy
}

::1:: Directions: Choose the pair of words that best express a relationship similar to that of the original pair.                                                   GOLD : EXPENSIVE
{
~jewellery : dull     
~cotton : beautiful~
~silver : outrageous      
=velvet: soft
}

::1:: Directions: Choose the pair of words that best express a relationship similar to that of the original pair.                                                   MOTHER : FEMALE
{
~vegetable : green         
~snake : dangerous
~rock : hard               
=tree : old
}

::1:: Directions: Choose the pair of words that best express a relationship similar to that of the original pair.                                                   INFURIATING : ANNOYING
{
~ruined : ugly               
=devastated : sad
~depressed : intelligent               
~arrogant: clever
}

::1:: Directions: Choose the pair of words that best express a relationship similar to that of the original pair.                                                   HELICOPTER : SKY
{
~canoe : street  
~truck : river
~motorcycle : bus        
=submarine : water
}

::1:: Directions: Choose the pair of words that best express a relationship similar to that of the original pair.                                                   UNKNOWN : FAME
{
~rapid : speed  
=ignorant: education
~refined : manners                    
~lovely: sight
}

::1:: Directions: Choose the pair of words that best express a relationship similar to that of the original pair.                                                   NICE : UNKIND
{
=hideous : pretty     
~safe : solid
~loud : noisy                 
~terrible : awful
}

::1:: Directions: Choose the pair of words that best express a relationship similar to that of the original pair.                                                   TELEVISION : WATCHED
{
ecord : baked             
~newspaper : cooked
=novel : read           
~comic : laughed
}

::1:: Directions: Choose the pair of words that best express a relationship similar to that of the original pair.                                                   PIE : DESSERT
{
=bacon : meat               
~candy : drink   
~cola : tea                     
~ham : beef
}

::1:: Directions: Find the odd one out.
{
~cat                              
~squirrel       
~white mouse   
=rat
}

::1:: Directions: Find the odd one out.
{
~cockroach                   
~ladybird       
~housefly                      
=mosquito
}

::1:: Directions: Find the odd one out.
{
~canary                        
=crow          
~parrot                          
~budgerigar
}

::1:: Select options showing the correct change of sentences from the Active to the Passive voice.
Roja gives Hema a present.
{
~Roja gives a present to Hema.
~Roja gives Hema a present.
~Hema is given a present by me.
=Hema is given a present by Roja.  
}

::1:: Select options showing the correct change of sentences from the Active to the Passive voice.
The farmers harvested the crops.
{
=The crops were harvested by the farmers.  
~The crops were harvesting the farmers.
~The crops harvest by the farmers.
~The crops are harvested by the farmers.
}

::1:: Select options showing the correct change of sentences from the Active to the Passive voice.
The owner will lock up the store after an hour.
{
~The store after an hour will lock up the owner.
=The store will be locked up by the owner after an hour.  
~The owner will be locked up after an hour in the shop.
~The store after an hour will lock up by the owner.
}

::1:: Select options showing the correct change of sentences from the Active to the Passive voice.
My grandmother used to treat the sick in the village.
{
~The sick used to treat by my grandmother in the village.
=The sick in the village used to be treated by my grandmother.  
~The sick were treated by my grandmother in the village.
~The sick were treated in the village by my grandmother.
}

::1:: Select options showing the correct change of sentences from the Active to the Passive voice.
The clouds have covered the Sun.
{
~The Sun has covered the clouds.
=The Sun has been covered by the clouds.  
~The Sun has covered by the clouds.
~The Sun is covered by the clouds.
}

::1:: Select options showing the correct change of sentences from the Active to the Passive voice.
My brother has broken the dishes.
{
~The dishes were broken.
~The dishes have broken by my brother.
~The dishes were broken by my brother.
=The dishes have been broken by my brother.  
}

::1:: Select options showing the correct change of sentences from the Active to the Passive voice.
Virat took these pictures of the statue.
{
~Virat was taken to these pictures of the statue.
~These pictures were taken at the statue.
=These pictures of the statue were taken by Virat.  
~These pictures of the statue have been taken by Virat.
}

::1:: Select options showing the correct change of sentences from the Active to the Passive voice.
The dentist extracted my tooth.
{
~My tooth has been extracted.
~My tooth have been extracted by the dentist.
=My tooth was extracted by the dentist.  
~My tooth has extracted by the dentist.
}

::1:: Select options showing the correct change of sentences from the Active to the Passive voice.
The hunter was making an animal trap.
{
~An animal trap was making.
~An animal trap is being made by the hunter.
=An animal trap was being made by the hunter.  
~An animal trap is being made by the hunter.
}

::1:: Select options showing the correct change of sentences from the Active to the Passive voice.
The singers are singing melodies at the party.
{
~Melodies were sung at the party.
=Melodies are being sung at the party by the singers.  
~Melodies were being sung at the party.
~Melodies have been sung at the party.
}

::1:: Read the passage given below and choose the correct options that can replace the underlined portions.
The plants Q11 only in the shallow part of the sea because they need sunlight Q12. Many seaweeds Q13 from the bottom of the sea in shallow waters near the coast but floating seaweeds Q14 at a great distance from land in the middle of the ocean. Most of the plants in the sea are so small that they Q15 only Q16 under a microscope. They Q17 and Q18 around by currents. The sea plants Q19 by animals which are almost as small as them and float in the sea, too. We Q20 both the tiny plants and animals, plankton.
{
~are living        
~living   
~live                   
~lived
}



  

  


  


  



  


  


  


  




  

  



  


  

  


  


  

  




        


  



  








  
